D:\Dev\Notary\Notary\app\app.component.js
D:\Dev\Notary\Notary\app\app.component.js.map
D:\Dev\Notary\Notary\app\Admin\Annonces\annonces.form.component.js
D:\Dev\Notary\Notary\app\Admin\Annonces\annonces.form.component.js.map
D:\Dev\Notary\Notary\app\Admin\Messages\messages.form.component.js
D:\Dev\Notary\Notary\app\Admin\Messages\messages.form.component.js.map
D:\Dev\Notary\Notary\app\Admin\Notes\notes.form.component.js
D:\Dev\Notary\Notary\app\Admin\Notes\notes.form.component.js.map
D:\Dev\Notary\Notary\app\Admin\Envoyer\envoyer.form.component.js
D:\Dev\Notary\Notary\app\Admin\Envoyer\envoyer.form.component.js.map
D:\Dev\Notary\Notary\app\Admin\Client\client.form.component.js
D:\Dev\Notary\Notary\app\Admin\Client\client.form.component.js.map
D:\Dev\Notary\Notary\app\Admin\TousLesDocument\documents.form.component.js
D:\Dev\Notary\Notary\app\Admin\TousLesDocument\documents.form.component.js.map
D:\Dev\Notary\Notary\app\app.module.js
D:\Dev\Notary\Notary\app\app.module.js.map
D:\Dev\Notary\Notary\app\main.js
D:\Dev\Notary\Notary\app\main.js.map
